EESchema Schematic File Version 4
EELAYER 30 0
EELAYER END
$Descr User 7874 5906
encoding utf-8
Sheet 1 1
Title "Tiny Keyboard Macros"
Date "2020-09-15"
Rev "2"
Comp ""
Comment1 ""
Comment2 ""
Comment3 ""
Comment4 ""
$EndDescr
$Comp
L Connector:USB_B_Micro J1
U 1 1 5F398578
P 1950 2400
F 0 "J1" H 2007 2775 50  0000 C CNN
F 1 "USB_B_Micro" H 2007 2776 50  0001 C CNN
F 2 "" H 2100 2350 50  0001 C CNN
F 3 "~" H 2100 2350 50  0001 C CNN
	1    1950 2400
	1    0    0    -1  
$EndComp
$Comp
L MCU_Microchip_ATtiny:ATtiny85-20PU U1
U 1 1 5F39AFAA
P 4000 2500
F 0 "U1" H 3470 2546 50  0000 R CNN
F 1 "ATtiny85" H 3470 2455 50  0000 R CNN
F 2 "Package_DIP:DIP-8_W7.62mm" H 4000 2500 50  0001 C CIN
F 3 "http://ww1.microchip.com/downloads/en/DeviceDoc/atmel-2586-avr-8-bit-microcontroller-attiny25-attiny45-attiny85_datasheet.pdf" H 4000 2500 50  0001 C CNN
	1    4000 2500
	-1   0    0    -1  
$EndComp
$Comp
L power:GND #PWR?
U 1 1 5F3A05A8
P 1950 3100
F 0 "#PWR?" H 1950 2850 50  0001 C CNN
F 1 "GND" H 1955 2927 50  0000 C CNN
F 2 "" H 1950 3100 50  0001 C CNN
F 3 "" H 1950 3100 50  0001 C CNN
	1    1950 3100
	1    0    0    -1  
$EndComp
$Comp
L power:GND #PWR?
U 1 1 5F3A2571
P 4000 3100
F 0 "#PWR?" H 4000 2850 50  0001 C CNN
F 1 "GND" H 4005 2927 50  0000 C CNN
F 2 "" H 4000 3100 50  0001 C CNN
F 3 "" H 4000 3100 50  0001 C CNN
	1    4000 3100
	1    0    0    -1  
$EndComp
$Comp
L power:+5V #PWR?
U 1 1 5F3A2E87
P 2250 1550
F 0 "#PWR?" H 2250 1400 50  0001 C CNN
F 1 "+5V" H 2265 1723 50  0000 C CNN
F 2 "" H 2250 1550 50  0001 C CNN
F 3 "" H 2250 1550 50  0001 C CNN
	1    2250 1550
	1    0    0    -1  
$EndComp
$Comp
L Device:D_Zener D1
U 1 1 5F3BC9D6
P 2800 2850
F 0 "D1" V 2754 2929 39  0000 L CNN
F 1 "3V6" V 2837 2929 50  0000 L CNN
F 2 "" H 2800 2850 50  0001 C CNN
F 3 "~" H 2800 2850 50  0001 C CNN
	1    2800 2850
	0    1    1    0   
$EndComp
Wire Wire Line
	3400 2500 3100 2500
Wire Wire Line
	3100 2700 3100 2600
Wire Wire Line
	2800 2700 2800 2500
Wire Wire Line
	2350 2600 2350 2400
Wire Wire Line
	2350 2400 2250 2400
$Comp
L power:GND #PWR?
U 1 1 5F3CB840
P 2950 3100
F 0 "#PWR?" H 2950 2850 50  0001 C CNN
F 1 "GND" H 2955 2927 50  0000 C CNN
F 2 "" H 2950 3100 50  0001 C CNN
F 3 "" H 2950 3100 50  0001 C CNN
	1    2950 3100
	1    0    0    -1  
$EndComp
$Comp
L power:+5V #PWR?
U 1 1 5F3D4A6F
P 2500 1550
F 0 "#PWR?" H 2500 1400 50  0001 C CNN
F 1 "+5V" H 2515 1723 50  0000 C CNN
F 2 "" H 2500 1550 50  0001 C CNN
F 3 "" H 2500 1550 50  0001 C CNN
	1    2500 1550
	1    0    0    -1  
$EndComp
Wire Wire Line
	2800 3000 2950 3000
Wire Wire Line
	1950 2800 1950 3100
Wire Wire Line
	2950 3100 2950 3000
Connection ~ 2950 3000
Wire Wire Line
	2950 3000 3100 3000
$Comp
L Device:R R3
U 1 1 5F3D308C
P 2500 1700
F 0 "R3" H 2541 1700 39  0000 L CNN
F 1 "1K5" V 2498 1626 50  0000 L CNN
F 2 "" V 2430 1700 50  0001 C CNN
F 3 "~" H 2500 1700 50  0001 C CNN
	1    2500 1700
	1    0    0    -1  
$EndComp
$Comp
L power:+5V #PWR?
U 1 1 5F3A63B2
P 4000 1550
F 0 "#PWR?" H 4000 1400 50  0001 C CNN
F 1 "+5V" H 4015 1723 50  0000 C CNN
F 2 "" H 4000 1550 50  0001 C CNN
F 3 "" H 4000 1550 50  0001 C CNN
	1    4000 1550
	1    0    0    -1  
$EndComp
$Comp
L power:GND #PWR?
U 1 1 5F4DBF52
P 2600 2300
F 0 "#PWR?" H 2600 2050 50  0001 C CNN
F 1 "GND" H 2605 2127 50  0000 C CNN
F 2 "" H 2600 2300 50  0001 C CNN
F 3 "" H 2600 2300 50  0001 C CNN
	1    2600 2300
	1    0    0    -1  
$EndComp
Wire Wire Line
	2700 2300 2600 2300
Wire Wire Line
	2250 2500 2500 2500
Connection ~ 2800 2500
Wire Wire Line
	2350 2600 3100 2600
Connection ~ 3100 2600
Wire Wire Line
	2500 2500 2500 1850
Connection ~ 2500 2500
Wire Wire Line
	2500 2500 2800 2500
Wire Wire Line
	4000 1900 4000 1550
Wire Wire Line
	3300 2300 3400 2300
Wire Wire Line
	3350 2400 3400 2400
Wire Wire Line
	3350 1850 3350 2400
$Comp
L Device:D_Zener D2
U 1 1 5F3BDD1B
P 3100 2850
F 0 "D2" V 3054 2929 39  0000 L CNN
F 1 "3V6" V 3137 2929 50  0000 L CNN
F 2 "" H 3100 2850 50  0001 C CNN
F 3 "~" H 3100 2850 50  0001 C CNN
	1    3100 2850
	0    1    1    0   
$EndComp
$Comp
L Device:R R12
U 1 1 5F4B93B6
P 6100 2900
F 0 "R12" H 6203 2900 39  0000 C CNN
F 1 "10K" V 6097 2900 50  0000 C CNN
F 2 "" V 6030 2900 50  0001 C CNN
F 3 "~" H 6100 2900 50  0001 C CNN
	1    6100 2900
	1    0    0    -1  
$EndComp
$Comp
L power:GND #PWR?
U 1 1 5F4BF561
P 4950 3100
F 0 "#PWR?" H 4950 2850 50  0001 C CNN
F 1 "GND" H 4955 2927 50  0000 C CNN
F 2 "" H 4950 3100 50  0001 C CNN
F 3 "" H 4950 3100 50  0001 C CNN
	1    4950 3100
	1    0    0    -1  
$EndComp
Connection ~ 5450 2900
Wire Wire Line
	5450 2900 5800 2900
Connection ~ 5100 2900
Wire Wire Line
	5100 2900 5450 2900
Wire Wire Line
	5100 2550 5100 2900
Connection ~ 5300 3100
Wire Wire Line
	5300 3100 5250 3100
Connection ~ 5650 3100
Wire Wire Line
	5650 3100 5600 3100
Connection ~ 6000 3100
Wire Wire Line
	6000 3100 5950 3100
Wire Wire Line
	6100 3100 6000 3100
Wire Wire Line
	6100 3050 6100 3100
Connection ~ 6000 2750
Wire Wire Line
	6000 2750 6100 2750
$Comp
L Device:R R15
U 1 1 5F4B6D31
P 5100 3100
F 0 "R15" V 5173 3100 39  0000 C CNN
F 1 "10K" V 5097 3100 50  0000 C CNN
F 2 "" V 5030 3100 50  0001 C CNN
F 3 "~" H 5100 3100 50  0001 C CNN
	1    5100 3100
	0    -1   -1   0   
$EndComp
$Comp
L Device:R R14
U 1 1 5F4B5C3E
P 5450 3100
F 0 "R14" V 5523 3100 39  0000 C CNN
F 1 "10K" V 5447 3100 50  0000 C CNN
F 2 "" V 5380 3100 50  0001 C CNN
F 3 "~" H 5450 3100 50  0001 C CNN
	1    5450 3100
	0    -1   -1   0   
$EndComp
$Comp
L Device:R R13
U 1 1 5F4B439F
P 5800 3100
F 0 "R13" V 5873 3100 39  0000 C CNN
F 1 "10K" V 5797 3100 50  0000 C CNN
F 2 "" V 5730 3100 50  0001 C CNN
F 3 "~" H 5800 3100 50  0001 C CNN
	1    5800 3100
	0    -1   -1   0   
$EndComp
Wire Wire Line
	5950 2750 6000 2750
Connection ~ 5650 2750
Wire Wire Line
	5600 2750 5650 2750
Connection ~ 5300 2750
Wire Wire Line
	4950 2750 5300 2750
Wire Wire Line
	4950 2700 4950 2750
Connection ~ 5300 2400
Wire Wire Line
	5300 2400 4950 2400
Connection ~ 6000 2400
Wire Wire Line
	6100 2400 6000 2400
Wire Wire Line
	6100 2050 6100 2400
Wire Wire Line
	5600 2050 6100 2050
$Comp
L Device:R R10
U 1 1 5F49EC72
P 5450 2750
F 0 "R10" V 5523 2750 39  0000 C CNN
F 1 "10K" V 5447 2750 50  0000 C CNN
F 2 "" V 5380 2750 50  0001 C CNN
F 3 "~" H 5450 2750 50  0001 C CNN
	1    5450 2750
	0    -1   -1   0   
$EndComp
$Comp
L Device:R R11
U 1 1 5F49D727
P 5800 2750
F 0 "R11" V 5873 2750 39  0000 C CNN
F 1 "10K" V 5797 2750 50  0000 C CNN
F 2 "" V 5730 2750 50  0001 C CNN
F 3 "~" H 5800 2750 50  0001 C CNN
	1    5800 2750
	0    -1   -1   0   
$EndComp
Connection ~ 5450 2550
Wire Wire Line
	5450 2550 5800 2550
Connection ~ 5100 2550
Wire Wire Line
	5100 2550 5450 2550
Wire Wire Line
	5100 2200 5100 2550
Connection ~ 5450 2200
Wire Wire Line
	5450 2200 5800 2200
Connection ~ 5100 2200
Wire Wire Line
	5100 2200 5450 2200
Connection ~ 5100 1850
Wire Wire Line
	5100 1850 5100 2200
Wire Wire Line
	5950 2400 6000 2400
Connection ~ 5650 2400
Wire Wire Line
	5600 2400 5650 2400
$Comp
L Device:R R9
U 1 1 5F491CA1
P 4950 2550
F 0 "R9" H 5035 2550 39  0000 C CNN
F 1 "10K" V 4947 2550 50  0000 C CNN
F 2 "" V 4880 2550 50  0001 C CNN
F 3 "~" H 4950 2550 50  0001 C CNN
	1    4950 2550
	1    0    0    -1  
$EndComp
$Comp
L power:+5V #PWR?
U 1 1 5F45A678
P 5100 1550
F 0 "#PWR?" H 5100 1400 50  0001 C CNN
F 1 "+5V" H 5115 1723 50  0000 C CNN
F 2 "" H 5100 1550 50  0001 C CNN
F 3 "" H 5100 1550 50  0001 C CNN
	1    5100 1550
	1    0    0    -1  
$EndComp
$Comp
L Device:R R5
U 1 1 5F42E0B7
P 5100 1700
F 0 "R5" H 5185 1700 39  0000 C CNN
F 1 "10K" V 5097 1700 50  0000 C CNN
F 2 "" V 5030 1700 50  0001 C CNN
F 3 "~" H 5100 1700 50  0001 C CNN
	1    5100 1700
	1    0    0    -1  
$EndComp
$Comp
L Device:R R7
U 1 1 5F457B27
P 5800 2400
F 0 "R7" V 5873 2400 39  0000 C CNN
F 1 "10K" V 5797 2400 50  0000 C CNN
F 2 "" V 5730 2400 50  0001 C CNN
F 3 "~" H 5800 2400 50  0001 C CNN
	1    5800 2400
	0    -1   -1   0   
$EndComp
$Comp
L Device:R R8
U 1 1 5F456124
P 5450 2400
F 0 "R8" V 5523 2400 39  0000 C CNN
F 1 "10K" V 5447 2400 50  0000 C CNN
F 2 "" V 5380 2400 50  0001 C CNN
F 3 "~" H 5450 2400 50  0001 C CNN
	1    5450 2400
	0    -1   -1   0   
$EndComp
$Comp
L Switch:SW_Push_45deg SW3
U 1 1 5F3F98BE
P 5550 2300
F 0 "SW3" H 5550 2468 39  0000 C CNN
F 1 "SW_Push_45deg" H 5550 2490 50  0001 C CNN
F 2 "" H 5550 2300 50  0001 C CNN
F 3 "~" H 5550 2300 50  0001 C CNN
	1    5550 2300
	1    0    0    -1  
$EndComp
$Comp
L Switch:SW_Push_45deg SW1
U 1 1 5F3F501F
P 5200 1950
F 0 "SW1" H 5200 2118 39  0000 C CNN
F 1 "SW_Push_45deg" H 5200 2140 50  0001 C CNN
F 2 "" H 5200 1950 50  0001 C CNN
F 3 "~" H 5200 1950 50  0001 C CNN
	1    5200 1950
	1    0    0    -1  
$EndComp
$Comp
L Device:R R6
U 1 1 5F4336AB
P 5450 2050
F 0 "R6" V 5523 2050 39  0000 C CNN
F 1 "10K" V 5447 2050 50  0000 C CNN
F 2 "" V 5380 2050 50  0001 C CNN
F 3 "~" H 5450 2050 50  0001 C CNN
	1    5450 2050
	0    -1   -1   0   
$EndComp
$Comp
L Switch:SW_Push_45deg SW8
U 1 1 5F3FABA1
P 5900 3000
F 0 "SW8" H 5900 3168 39  0000 C CNN
F 1 "SW_Push_45deg" H 5900 3190 50  0001 C CNN
F 2 "" H 5900 3000 50  0001 C CNN
F 3 "~" H 5900 3000 50  0001 C CNN
	1    5900 3000
	1    0    0    -1  
$EndComp
$Comp
L Switch:SW_Push_45deg SW9
U 1 1 5F3FAA11
P 5550 3000
F 0 "SW9" H 5550 3168 39  0000 C CNN
F 1 "SW_Push_45deg" H 5550 3190 50  0001 C CNN
F 2 "" H 5550 3000 50  0001 C CNN
F 3 "~" H 5550 3000 50  0001 C CNN
	1    5550 3000
	1    0    0    -1  
$EndComp
$Comp
L Switch:SW_Push_45deg SW10
U 1 1 5F3FA6C5
P 5200 3000
F 0 "SW10" H 5200 3168 39  0000 C CNN
F 1 "SW_Push_45deg" H 5200 3190 50  0001 C CNN
F 2 "" H 5200 3000 50  0001 C CNN
F 3 "~" H 5200 3000 50  0001 C CNN
	1    5200 3000
	1    0    0    -1  
$EndComp
$Comp
L Switch:SW_Push_45deg SW7
U 1 1 5F3FA5C3
P 5900 2650
F 0 "SW7" H 5900 2818 39  0000 C CNN
F 1 "SW_Push_45deg" H 5900 2840 50  0001 C CNN
F 2 "" H 5900 2650 50  0001 C CNN
F 3 "~" H 5900 2650 50  0001 C CNN
	1    5900 2650
	1    0    0    -1  
$EndComp
$Comp
L Switch:SW_Push_45deg SW6
U 1 1 5F3FA3A6
P 5550 2650
F 0 "SW6" H 5550 2818 39  0000 C CNN
F 1 "SW_Push_45deg" H 5550 2840 50  0001 C CNN
F 2 "" H 5550 2650 50  0001 C CNN
F 3 "~" H 5550 2650 50  0001 C CNN
	1    5550 2650
	1    0    0    -1  
$EndComp
$Comp
L Switch:SW_Push_45deg SW5
U 1 1 5F3F9CDE
P 5200 2650
F 0 "SW5" H 5200 2818 39  0000 C CNN
F 1 "SW_Push_45deg" H 5200 2840 50  0001 C CNN
F 2 "" H 5200 2650 50  0001 C CNN
F 3 "~" H 5200 2650 50  0001 C CNN
	1    5200 2650
	1    0    0    -1  
$EndComp
$Comp
L Switch:SW_Push_45deg SW2
U 1 1 5F3F9B41
P 5900 2300
F 0 "SW2" H 5900 2468 39  0000 C CNN
F 1 "SW_Push_45deg" H 5900 2490 50  0001 C CNN
F 2 "" H 5900 2300 50  0001 C CNN
F 3 "~" H 5900 2300 50  0001 C CNN
	1    5900 2300
	1    0    0    -1  
$EndComp
$Comp
L Switch:SW_Push_45deg SW4
U 1 1 5F3F8E83
P 5200 2300
F 0 "SW4" H 5200 2468 39  0000 C CNN
F 1 "SW_Push_45deg" H 5200 2490 50  0001 C CNN
F 2 "" H 5200 2300 50  0001 C CNN
F 3 "~" H 5200 2300 50  0001 C CNN
	1    5200 2300
	1    0    0    -1  
$EndComp
$Comp
L Device:LED D3
U 1 1 5F4CF73A
P 2850 2300
F 0 "D3" H 2843 2516 39  0000 C CNN
F 1 "LED" H 2843 2425 50  0000 C CNN
F 2 "" H 2850 2300 50  0001 C CNN
F 3 "~" H 2850 2300 50  0001 C CNN
	1    2850 2300
	1    0    0    -1  
$EndComp
$Comp
L Device:R R4
U 1 1 5F4CDD32
P 3150 2300
F 0 "R4" V 3218 2300 39  0000 C CNN
F 1 "100" V 3147 2300 50  0000 C CNN
F 2 "" V 3080 2300 50  0001 C CNN
F 3 "~" H 3150 2300 50  0001 C CNN
	1    3150 2300
	0    -1   -1   0   
$EndComp
Wire Wire Line
	5100 1850 3350 1850
$Comp
L Device:R R2
U 1 1 5F3B8272
P 3250 2600
F 0 "R2" V 3317 2600 39  0000 C CNN
F 1 "68" V 3246 2600 50  0000 C CNN
F 2 "" V 3180 2600 50  0001 C CNN
F 3 "~" H 3250 2600 50  0001 C CNN
	1    3250 2600
	0    -1   -1   0   
$EndComp
$Comp
L Device:R R1
U 1 1 5F3B4F84
P 2950 2500
F 0 "R1" V 3018 2500 39  0000 C CNN
F 1 "68" V 2947 2500 50  0000 C CNN
F 2 "" V 2880 2500 50  0001 C CNN
F 3 "~" H 2950 2500 50  0001 C CNN
	1    2950 2500
	0    -1   -1   0   
$EndComp
Wire Wire Line
	2250 2200 2250 1550
$EndSCHEMATC
